…
## Comparing weekly and monthly activities by year

``` r
run_data %>% 
  group_by(year, week) %>%
  summarise(week_dist = sum(distance)) %>%
  pivot_wider(id_cols = week, names_from = year, values_from = week_dist)
```

    ## `summarise()` has grouped output by 'year'. You can override using the
    ## `.groups` argument.

    ## # A tibble: 53 × 8
    ##     week `2016` `2017` `2018` `2019` `2020` `2021` `2022`
    ##    <dbl>  <dbl>  <dbl>  <dbl>  <dbl>  <dbl>  <dbl>  <dbl>
    ##  1     1   20.7   32.1   57.5   0      0      18.0   0   
    ##  2     2   11      0     47.7   0      0      22.4   6.76
    ##  3     3    6.5    0     18.2   0     25.3    18.6  19.4 
    ##  4     4    7      0      0     0      7.38   20.3  41.7 
    ##  5     5   13.5    0      0     0      5.89   14.9  27.8 
    ##  6     6   14      0      0     0     23.0    27.4  37.0 
    ##  7     7   24      0      0    13.4    0      25.9  27.0 
    ##  8     8   25.3   10      0     7.45  22.8    16.7  40.0 
    ##  9     9   27.3   10      0     7.92  13.6    28.3  25.3 
    ## 10    10   26      0      4.2   3.61   0      26.3  28.0 
    ## # … with 43 more rows
…
